{
    "content": [
        {
            "productId": 37,
            "productNumber": "SG-34-4987",
            "hsn": 233,
            "name": "Test 4",
            "description": "jjdjd",
            "location": "",
            "quantity": 20,
            "purchasePrice": 200.00,
            "wholesaleRate": 200.00,
            "retailRate": 200.00,
            "taxRate": 30.00,
            "category": "Electronic",
            "imageUrl": "https://example.com/product.jpg",
            "expiry": "2025-12-31T00:00:00.000+00:00",
            "barcode": "",
            "shopId": null,
            "shop": {
                "shopId": 3,
                "name": "Serins Auoto Spareparts",
                "description": null,
                "address": null,
                "place": "Kollam",
                "status": "CREATED",
                "map": "URL",
                "gstNo": null,
                "phone": null,
                "logo": null,
                "subscriptionPlan": null,
                "owner": {
                    "userId": 1,
                    "fullName": "Admin",
                    "place": "Punalur",
                    "countryId": null,
                    "country": null,
                    "phone": "8891440733",
                    "email": "admin@gmail.com",
                    "password": null,
                    "referredBy": null,
                    "status": "ACTIVE",
                    "shop": null,
                    "roles": null,
                    "shops": null,
                    "shopIds": null,
                    "shopId": null,
                    "roleId": null,
                    "referredByUserId": null
                },
                "shopSubscription": null,
                "subscriptionPlanId": null,
                "ownerId": null
            },
            "createdAt": null,
            "updatedAt": null,
            "cgst": 20.00,
            "sgst": 10.00
        },
        {
            "productId": 36,
            "productNumber": "SG-Tess",
            "hsn": 2345,
            "name": "Test 3",
            "description": "",
            "location": "",
            "quantity": 20,
            "purchasePrice": 20.00,
            "wholesaleRate": 20.00,
            "retailRate": 20.00,
            "taxRate": 40.00,
            "category": "Electronic",
            "imageUrl": "https://example.com/product.jpg",
            "expiry": "2025-12-31T00:00:00.000+00:00",
            "barcode": "",
            "shopId": null,
            "shop": {
                "shopId": 3,
                "name": "Serins Auoto Spareparts",
                "description": null,
                "address": null,
                "place": "Kollam",
                "status": "CREATED",
                "map": "URL",
                "gstNo": null,
                "phone": null,
                "logo": null,
                "subscriptionPlan": null,
                "owner": {
                    "userId": 1,
                    "fullName": "Admin",
                    "place": "Punalur",
                    "countryId": null,
                    "country": null,
                    "phone": "8891440733",
                    "email": "admin@gmail.com",
                    "password": null,
                    "referredBy": null,
                    "status": "ACTIVE",
                    "shop": null,
                    "roles": null,
                    "shops": null,
                    "shopIds": null,
                    "shopId": null,
                    "roleId": null,
                    "referredByUserId": null
                },
                "shopSubscription": null,
                "subscriptionPlanId": null,
                "ownerId": null
            },
            "createdAt": null,
            "updatedAt": null,
            "cgst": 20.00,
            "sgst": 20.00
        },
        {
            "productId": 35,
            "productNumber": "PArt-389903s",
            "hsn": 1234,
            "name": "Test 2",
            "description": "asdf",
            "location": "",
            "quantity": 10,
            "purchasePrice": 200.00,
            "wholesaleRate": 190.00,
            "retailRate": 190.00,
            "taxRate": 40.00,
            "category": "Electronic",
            "imageUrl": "https://example.com/product.jpg",
            "expiry": "2025-12-31T00:00:00.000+00:00",
            "barcode": "",
            "shopId": null,
            "shop": {
                "shopId": 3,
                "name": "Serins Auoto Spareparts",
                "description": null,
                "address": null,
                "place": "Kollam",
                "status": "CREATED",
                "map": "URL",
                "gstNo": null,
                "phone": null,
                "logo": null,
                "subscriptionPlan": null,
                "owner": {
                    "userId": 1,
                    "fullName": "Admin",
                    "place": "Punalur",
                    "countryId": null,
                    "country": null,
                    "phone": "8891440733",
                    "email": "admin@gmail.com",
                    "password": null,
                    "referredBy": null,
                    "status": "ACTIVE",
                    "shop": null,
                    "roles": null,
                    "shops": null,
                    "shopIds": null,
                    "shopId": null,
                    "roleId": null,
                    "referredByUserId": null
                },
                "shopSubscription": null,
                "subscriptionPlanId": null,
                "ownerId": null
            },
            "createdAt": null,
            "updatedAt": null,
            "cgst": 20.00,
            "sgst": 20.00
        }
    ],
    "pageable": {
        "pageNumber": 0,
        "pageSize": 3,
        "sort": {
            "sorted": true,
            "empty": false,
            "unsorted": false
        },
        "offset": 0,
        "unpaged": false,
        "paged": true
    },
    "totalElements": 19,
    "totalPages": 7,
    "last": false,
    "size": 3,
    "number": 0,
    "sort": {
        "sorted": true,
        "empty": false,
        "unsorted": false
    },
    "numberOfElements": 3,
    "first": true,
    "empty": false
}